…
    library("styler")
    library("dplyr")

    code <- "a <- function(x) { if(x > 1) { 1+1 } else {x} }"

    (parse_table <- styler:::compute_parse_data_flat_enhanced(code))

    ## # A tibble: 24 x 14
    ##    line1  col1 line2  col2          token     text terminal short newlines
    ##    <int> <int> <int> <int>          <chr>    <chr>    <lgl> <chr>    <int>
    ##  1     1     0     1     0          START                NA  <NA>        0
    ##  2     1     1     1     1         SYMBOL        a     TRUE     a        0
    ##  3     1     3     1     4    LEFT_ASSIGN       <-     TRUE    <-        0
    ##  4     1     6     1    13       FUNCTION function     TRUE funct        0
    ##  5     1    14     1    14            '('        (     TRUE     (        0
    ##  6     1    15     1    15 SYMBOL_FORMALS        x     TRUE     x        0
    ##  7     1    16     1    16            ')'        )     TRUE     )        0
    ##  8     1    18     1    18            '{'        {     TRUE     {        0
    ##  9     1    20     1    21             IF       if     TRUE    if        0
    ## 10     1    22     1    22            '('        (     TRUE     (        0
    ## # ... with 14 more rows, and 5 more variables: lag_newlines <int>,
    ## #   spaces <int>, multi_line <lgl>, indention_ref_id <lgl>, indent <dbl>
…
