Data Structures • styler
…
This vignette illustrates how the core of styler currently1 works, i.e. how rules are applied to a parse table and how limitations of this approach can be overcome with a refined approach.

Status quo - the flat approach

Roughly speaking, a string containing code to be formatted is parsed with parse and the output is passed to getParseData in order to obtain a parse table with detailed information about every token. For a simple example string “a <- function(x) { if(x > 1) { 1+1 } else {x} }” to be formatted, the parse table on which styler performs the manipulations looks similar to the one presented below.

library("styler")
library("dplyr")

code <- "a <- function(x) { if(x > 1) { 1+1 } else {x} }"

(parse_table <- styler:::compute_parse_data_flat_enhanced(code))

## # A tibble: 24 x 14
##    line1  col1 line2  col2          token     text terminal short newlines
##    <int> <int> <int> <int>          <chr>    <chr>    <lgl> <chr>    <int>
##  1     1     0     1     0          START                NA  <NA>        0
##  2     1     1     1     1         SYMBOL        a     TRUE     a        0
##  3     1     3     1     4    LEFT_ASSIGN       <-     TRUE    <-        0
##  4     1     6     1    13       FUNCTION function     TRUE funct        0
##  5     1    14     1    14            '('        (     TRUE     (        0
##  6     1    15     1    15 SYMBOL_FORMALS        x     TRUE     x        0
##  7     1    16     1    16            ')'        )     TRUE     )        0
##  8     1    18     1    18            '{'        {     TRUE     {        0
##  9     1    20     1    21             IF       if     TRUE    if        0
## 10     1    22     1    22            '('        (     TRUE     (        0
## # ... with 14 more rows, and 5 more variables: lag_newlines <int>,
## #   spaces <int>, multi_line <lgl>, indention_ref_id <lgl>, indent <dbl>
…
